<svg width="40" height="5" viewBox="0 0 40 5" fill="none" xmlns="http://www.w3.org/2000/svg">
<line y1="2.5" x2="36" y2="2.5" stroke="url(#paint0_linear)"/>
<circle cx="37.5" cy="2.5" r="2.5" fill="#0F5197"/>
<defs>
<linearGradient id="paint0_linear" x1="0" y1="3" x2="36" y2="3" gradientUnits="userSpaceOnUse">
<stop stop-color="#ECEEF0"/>
<stop offset="1" stop-color="#0F5197"/>
</linearGradient>
</defs>
</svg>
