<svg width="123" height="9" viewBox="0 0 123 9" fill="none" xmlns="http://www.w3.org/2000/svg">
<mask id="mask0" mask-type="alpha" maskUnits="userSpaceOnUse" x="0" y="0" width="123" height="9">
<path d="M0.015625 0.0146484H122.858V8.97962H0.015625V0.0146484Z" fill="white"/>
</mask>
<g mask="url(#mask0)">
<path fill-rule="evenodd" clip-rule="evenodd" d="M103.913 3.51355C103.669 4.17492 103.445 4.76649 103.211 5.41303C99.6938 5.41303 96.1871 5.41303 92.6549 5.41303C92.4767 5.9 92.3086 6.35755 92.1206 6.85473C96.3243 6.85473 100.478 6.85473 104.722 6.85473C104.443 7.59079 104.193 8.267 103.941 8.94809C98.5946 8.94809 93.2809 8.94809 87.8936 8.94809C89.0055 5.95984 90.1023 3.01149 91.2093 0.0380859C96.5484 0.0380859 101.882 0.0380859 107.259 0.0380859C106.995 0.743978 106.743 1.4253 106.478 2.12633C102.279 2.12633 98.0931 2.12633 93.8864 2.12633C93.7161 2.58387 93.5508 3.02122 93.3623 3.51355C96.8997 3.51355 100.371 3.51355 103.913 3.51355Z" fill="#1A1919"/>
<path fill-rule="evenodd" clip-rule="evenodd" d="M14.9433 5.41249C14.7294 5.39765 14.508 5.358 14.279 5.3529C13.2738 5.34803 12.2634 5.358 11.2607 5.3529C9.35721 5.34292 7.46391 5.34292 5.56538 5.31325C4.92921 5.2933 4.28284 5.22884 3.65664 5.13422C2.72542 4.98998 2.49137 4.61709 2.75356 3.72195C2.8783 3.28946 3.04089 2.86184 3.23186 2.4493C3.64668 1.54419 4.34907 0.937789 5.29572 0.594573C6.15324 0.281275 7.04661 0.122438 7.94993 0.107357C10.1358 0.0574917 12.3271 0.0426538 14.5105 0.0227079C15.8974 0.00787004 17.287 0.0227079 18.6738 0.0227079C18.8188 0.0227079 18.9562 0.0227079 19.1549 0.0227079C18.8875 0.753654 18.6357 1.42501 18.3761 2.14598C17.6024 2.14598 16.844 2.14087 16.0908 2.14598C13.3323 2.15084 10.571 2.15595 7.81498 2.16082C7.71066 2.16082 7.60907 2.15084 7.50474 2.16082C6.70549 2.21555 6.20428 2.44419 6.04642 3.39406C6.14577 3.43371 6.25507 3.49817 6.3721 3.51325C6.55784 3.53806 6.75131 3.52809 6.93954 3.52809C9.26036 3.52809 11.5814 3.51325 13.9022 3.53806C14.9201 3.54803 15.9382 3.62271 16.9561 3.69738C17.2564 3.71709 17.5616 3.80149 17.8415 3.90609C18.2742 4.07003 18.455 4.3933 18.3609 4.82579C18.1928 5.57668 17.9535 6.3176 17.5337 6.97387C17.0629 7.69995 16.3809 8.17209 15.5565 8.45084C14.6504 8.75392 13.709 8.88309 12.7621 8.89817C11.0546 8.94292 9.35223 8.96287 7.64194 8.97771C5.28029 8.98257 2.91639 8.97771 0.552255 8.97771C0.394397 8.97771 0.241767 8.97771 0 8.97771C0.272144 8.24165 0.516401 7.58052 0.776095 6.87949C0.96433 6.87949 1.13489 6.87949 1.30544 6.87949C5.24991 6.87949 9.18417 6.88436 13.1286 6.87949C13.4645 6.87949 13.8056 6.85955 14.1261 6.78998C14.6681 6.66568 15.0374 6.03398 14.9433 5.41249Z" fill="#1A1919"/>
<path fill-rule="evenodd" clip-rule="evenodd" d="M48.4997 2.35851C48.3418 2.29892 48.2325 2.22424 48.1155 2.2043C47.8533 2.16951 47.5939 2.13473 47.3317 2.13473C45.0261 2.12476 42.7204 2.11989 40.4175 2.11989C40.303 2.11989 40.191 2.13984 40.069 2.14981C39.8245 2.80608 39.5904 3.43754 39.3359 4.11886C39.4913 4.12859 39.6158 4.14854 39.743 4.14854C41.7994 4.14854 43.8556 4.15341 45.9117 4.14343C46.3494 4.14343 46.7872 4.12373 47.2249 4.08384C47.5326 4.05903 47.8459 3.98946 48.0137 3.70097C48.2403 3.29841 48.4056 2.88051 48.4997 2.35851ZM34.0938 8.92681C35.2057 5.94854 36.3025 2.99484 37.417 0.00659459C37.5646 0.00659459 37.7071 0.00659459 37.8472 0.00659459C40.985 0.00659459 44.1202 -0.00824324 47.2605 0.00659459C48.3802 0.0165676 49.5049 0.0712973 50.6044 0.344703C50.8945 0.419378 51.1898 0.52373 51.4594 0.653135C52.0194 0.911703 52.2763 1.36414 52.2126 1.97078C52.0754 3.23857 51.49 4.258 50.3601 4.91427C49.841 5.20762 49.2506 5.39638 48.6907 5.63014C48.5839 5.67489 48.4666 5.70481 48.299 5.74957C49.0878 6.81376 49.8512 7.84268 50.6196 8.88205C50.281 8.98154 48.0443 9.01146 46.7262 8.94165C46.0721 8.06184 45.3926 7.15673 44.7156 6.25162C42.6594 6.25162 40.6185 6.25162 38.5419 6.25162C38.206 7.14676 37.8726 8.03192 37.5343 8.92681C36.3966 8.92681 35.2819 8.92681 34.0938 8.92681Z" fill="#1A1919"/>
<path fill-rule="evenodd" clip-rule="evenodd" d="M109.962 4.1716C110.12 4.18644 110.219 4.20127 110.316 4.20127C112.413 4.20127 114.509 4.20614 116.612 4.19617C117.08 4.19617 117.543 4.16163 118.009 4.11176C118.255 4.09182 118.495 3.99744 118.637 3.76855C118.881 3.36598 119.039 2.93325 119.128 2.42122C118.983 2.35652 118.858 2.28209 118.729 2.25703C118.469 2.21738 118.21 2.18746 117.947 2.18746C115.66 2.17749 113.367 2.17263 111.084 2.17263C110.964 2.17263 110.85 2.1826 110.713 2.19257C110.468 2.834 110.226 3.47033 109.962 4.1716ZM117.355 8.97955C116.683 8.08465 116.011 7.18952 115.352 6.30946C113.278 6.30946 111.237 6.30946 109.176 6.30946C108.84 7.20946 108.501 8.1046 108.168 8.97955C107.018 8.97955 105.898 8.97955 104.725 8.97955C105.839 6.00128 106.939 3.04757 108.041 0.084383C108.203 0.0693019 108.348 0.059329 108.489 0.059329C111.629 0.059329 114.764 0.0444911 117.902 0.059329C119.009 0.0693019 120.118 0.128897 121.207 0.387464C121.482 0.457275 121.767 0.54168 122.03 0.661113C122.688 0.964437 122.948 1.50127 122.831 2.20255C122.584 3.734 121.686 4.75806 120.256 5.3596C119.841 5.52379 119.411 5.66292 118.953 5.82711C119.724 6.86649 120.49 7.91073 121.292 8.97955C119.95 8.97955 118.678 8.97955 117.355 8.97955Z" fill="#1A1919"/>
</g>
<path fill-rule="evenodd" clip-rule="evenodd" d="M67.97 8.9481C65.7204 6.94427 63.4479 4.92073 61.1144 2.82737C60.3408 4.90564 59.5874 6.92432 58.8342 8.93813C57.6841 8.93813 56.5694 8.93813 55.3887 8.93813C56.5034 5.93991 57.6027 2.99618 58.7047 0.0429688C59.8625 0.0429688 60.9974 0.0429688 62.1502 0.0429688C64.4125 2.05167 66.6825 4.08008 69.0163 6.15859C69.7924 4.08008 70.5508 2.05654 71.3037 0.0429688C72.454 0.0429688 73.5688 0.0429688 74.7393 0.0429688C73.6298 3.03121 72.5355 5.98467 71.4312 8.9481C70.2732 8.9481 69.1408 8.9481 67.97 8.9481Z" fill="#1A1919"/>
<path fill-rule="evenodd" clip-rule="evenodd" d="M22.8967 4.14221C23.085 4.15218 23.2122 4.16726 23.3394 4.16726C25.3625 4.16726 27.3907 4.17213 29.4115 4.16726C29.8796 4.16726 30.348 4.14221 30.8111 4.08772C31.0299 4.06753 31.3048 3.9931 31.442 3.85397C31.824 3.44629 31.9714 2.92916 32.0428 2.39207C31.6763 2.13351 31.2894 2.14859 30.9127 2.14859C28.5869 2.13351 26.2509 2.13351 23.9196 2.12864C23.8332 2.12864 23.7465 2.14348 23.632 2.14859C23.393 2.80486 23.1537 3.44629 22.8967 4.14221ZM22.1129 6.2504C21.7668 7.17035 21.4307 8.06062 21.0975 8.96037C19.9497 8.96037 18.8275 8.96037 17.6543 8.96037C18.7638 5.97699 19.8608 3.02353 20.9728 0.0401557C21.118 0.0352908 21.2604 0.030426 21.4055 0.030426C24.5408 0.0253179 27.6783 0.00537191 30.8136 0.030426C31.9054 0.0401557 32.9997 0.0800476 34.0683 0.338615C34.4172 0.428129 34.7657 0.542453 35.0864 0.706642C35.631 0.980048 35.8498 1.4624 35.7709 2.05907C35.6818 2.72532 35.4554 3.33683 35.1524 3.91843C34.7197 4.7688 34.0277 5.32559 33.1242 5.64886C32.2694 5.95218 31.376 6.08159 30.4752 6.15116C27.8972 6.34989 25.3117 6.21075 22.7339 6.2504C22.5454 6.2504 22.3572 6.2504 22.1129 6.2504Z" fill="#1A1919"/>
<path fill-rule="evenodd" clip-rule="evenodd" d="M75.5282 0.0380859C80.5159 0.0380859 85.4427 0.0380859 90.4331 0.0380859C90.1659 0.749086 89.9165 1.42044 89.657 2.12633C87.7483 2.12633 85.855 2.12633 83.931 2.12633C83.076 4.40868 82.2287 6.68106 81.3814 8.95319C80.2333 8.95319 79.1216 8.95319 77.9406 8.95319C78.7904 6.67109 79.6253 4.42863 80.4806 2.1363C78.5591 2.1363 76.6885 2.1363 74.7441 2.1363C75.0193 1.40049 75.2713 0.72914 75.5282 0.0380859Z" fill="#1A1919"/>
<path fill-rule="evenodd" clip-rule="evenodd" d="M57.7913 0.0527344C56.6765 3.04584 55.5748 6.00441 54.478 8.9479C53.3174 8.9479 52.2027 8.9479 51.0322 8.9479C52.1417 5.97449 53.241 3.02103 54.3405 0.0527344C55.4856 0.0527344 56.6155 0.0527344 57.7913 0.0527344Z" fill="#1A1919"/>
</svg>
